%YAML 1.1
%TAG !u! tag:unity3d.com,2011:
--- !u!114 &11400000
MonoBehaviour:
  m_ObjectHideFlags: 0
  m_CorrespondingSourceObject: {fileID: 0}
  m_PrefabInstance: {fileID: 0}
  m_PrefabAsset: {fileID: 0}
  m_GameObject: {fileID: 0}
  m_Enabled: 1
  m_EditorHideFlags: 0
  m_Script: {fileID: 11500000, guid: ba9da591c525c5f4fba95eb15a20c5ca, type: 3}
  m_Name: 4-GoHome
  m_EditorClassIdentifier: 
  goalName: Go Home
  goalDesc: Reina has left to take care of her own errands. Go home and make sure
    everything is in order.
  goalMaxProg: 1
