%YAML 1.1
%TAG !u! tag:unity3d.com,2011:
--- !u!114 &11400000
MonoBehaviour:
  m_ObjectHideFlags: 0
  m_CorrespondingSourceObject: {fileID: 0}
  m_PrefabInstance: {fileID: 0}
  m_PrefabAsset: {fileID: 0}
  m_GameObject: {fileID: 0}
  m_Enabled: 1
  m_EditorHideFlags: 0
  m_Script: {fileID: 11500000, guid: ba9da591c525c5f4fba95eb15a20c5ca, type: 3}
  m_Name: 6-TalkToThief
  m_EditorClassIdentifier: 
  goalName: Find Thief
  goalDesc: Someone saw Reina go into Thief's house with a strange Traveller. Between
    this and the cart attack, this spells trouble.
  goalMaxProg: 1
