%YAML 1.1
%TAG !u! tag:unity3d.com,2011:
--- !u!114 &11400000
MonoBehaviour:
  m_ObjectHideFlags: 0
  m_CorrespondingSourceObject: {fileID: 0}
  m_PrefabInstance: {fileID: 0}
  m_PrefabAsset: {fileID: 0}
  m_GameObject: {fileID: 0}
  m_Enabled: 1
  m_EditorHideFlags: 0
  m_Script: {fileID: 11500000, guid: dd788eae49bfeac45a5db5a0026048bc, type: 3}
  m_Name: Vio-KI-Cast
  m_EditorClassIdentifier: 
  displayIcon: {fileID: 2800000, guid: d7728ee75cc0bf54980cfaa9429a00b3, type: 3}
  displayName: Glinting Sapphire
  description: A lightning gem
