%YAML 1.1
%TAG !u! tag:unity3d.com,2011:
--- !u!114 &11400000
MonoBehaviour:
  m_ObjectHideFlags: 0
  m_CorrespondingSourceObject: {fileID: 0}
  m_PrefabInstance: {fileID: 0}
  m_PrefabAsset: {fileID: 0}
  m_GameObject: {fileID: 0}
  m_Enabled: 1
  m_EditorHideFlags: 0
  m_Script: {fileID: 11500000, guid: dd788eae49bfeac45a5db5a0026048bc, type: 3}
  m_Name: Vio-ATK-Ult
  m_EditorClassIdentifier: 
  displayIcon: {fileID: 2800000, guid: 8c1b44b6a5eb7134faa84b462452ca98, type: 3}
  displayName: Dragon Crash
  description: beeg crash dragon crash
