%YAML 1.1
%TAG !u! tag:unity3d.com,2011:
--- !u!114 &11400000
MonoBehaviour:
  m_ObjectHideFlags: 0
  m_CorrespondingSourceObject: {fileID: 0}
  m_PrefabInstance: {fileID: 0}
  m_PrefabAsset: {fileID: 0}
  m_GameObject: {fileID: 0}
  m_Enabled: 1
  m_EditorHideFlags: 0
  m_Script: {fileID: 11500000, guid: dd788eae49bfeac45a5db5a0026048bc, type: 3}
  m_Name: Vio-ATK-MeleeCh
  m_EditorClassIdentifier: 
  displayIcon: {fileID: 2800000, guid: 377448350bbe38f4dbaa86217a52d9a1, type: 3}
  displayName: Spin Slash
  description: spin slash
