%YAML 1.1
%TAG !u! tag:unity3d.com,2011:
--- !u!114 &11400000
MonoBehaviour:
  m_ObjectHideFlags: 0
  m_CorrespondingSourceObject: {fileID: 0}
  m_PrefabInstance: {fileID: 0}
  m_PrefabAsset: {fileID: 0}
  m_GameObject: {fileID: 0}
  m_Enabled: 1
  m_EditorHideFlags: 0
  m_Script: {fileID: 11500000, guid: ba9da591c525c5f4fba95eb15a20c5ca, type: 3}
  m_Name: 0-1-0-Get Ready
  m_EditorClassIdentifier: 
  goalName: Prepare for the day.
  goalDesc: Today is your first day of training for the Junior Rooks. You'll need
    to convince your father to write a letter of recommendation.
  goalMaxProg: 1
